Script started on Fri 22 May 2015 16:02:10 AWST
make[1]: Entering directory `/home/15490010/Uni/2015/FCC220/Assignment2'
stuff.c: In function ‘doRSA’:
stuff.c:22: warning: unused variable ‘retPlainText’
stuff.c:21: warning: unused variable ‘cipherText’
stuff.c:20: warning: unused variable ‘plainText’
stuff.c: In function ‘moduloInverse’:
stuff.c:132: warning: format ‘%lld’ expects type ‘long long int’, but argument 3 has type ‘int’
p is 158278134792386
q is 4310741247
n is 6361093468926124350
phi is 6360935186480590718
e is 495089359
8589934592
^Cmake[1]: *** Deleting file `run'
make[1]: *** [run] Interrupt

Script done on Fri 22 May 2015 16:02:12 AWST
